2016/06/01 * guld pre-founding contributions
    mrose17:Assets                              100 GULD
    mrose17:Income:guld                        -100 GULD
    guld:Liabilities                         -100 GULD
    guld:Equity:mrose17                          100 GULD
